\beamer@endinputifotherversion {3.36pt}
\beamer@sectionintoc {1}{Gry strategiczne i dylematy spo\IeC {\l }eczne}{3}{0}{1}
\beamer@sectionintoc {2}{Gry ewolucyjne}{16}{0}{2}
\beamer@sectionintoc {3}{Gry koalicyjne}{26}{0}{3}
\beamer@sectionintoc {4}{Koalicyjne gry ewolucyjne}{38}{0}{4}
\beamer@sectionintoc {5}{Rdze\IeC {\'n}}{51}{0}{5}
\beamer@sectionintoc {6}{Pomys\IeC {\l }y i cele}{60}{0}{6}
